{ "rects" : [
{"x":100, "y":100, 					"w":250, "H":80},
{"x":120, "y":200, 					"w":250, "H":150},
{"x":140, "y":160, 					"w":250, "H":100},
{"x":160, "y":140, 					"w":350, "H":190},
{"x":1020, "y":0, 					"w":960, "H":1000},
{"x":1000, "y":20, 					"w":100, "H":960}
]
}