{ "rects" : [
{"x":1e2, "y":1e2, 					"w":250, "h":80},
{"x":120, "y":200, 					"w":250, "h":150},
{"x":140, "y":160, 					"w":250, "h":100},
{"x":160, "y":140, 					"w":350, "h":190},
{"x":1020, "y":0, 					"w":960, "h":1000},
{"x":1000, "y":20, 					"w":100, "h":960}
]
}